{
  "kind":"Template",
  "apiVersion":"v1",
  "metadata":{
    "name":"keycloak-server",
    "creationTimestamp":null,
    "annotations":{
      "description":"Keycloak"
    }
  },
  "objects":[
    {
      "kind":"DeploymentConfig",
      "apiVersion":"v1",
      "metadata":{
        "name":"keycloak-server",
        "creationTimestamp":null
      },
      "spec":{
        "strategy":{
          "type":"Recreate",
          "resources":{

          }
        },
        "triggers":[
          {
            "type":"ConfigChange"
          }
        ],
        "replicas":1,
        "selector":{
          "name":"keycloak"
        },
        "template":{
          "metadata":{
            "creationTimestamp":null,
            "labels":{
              "name":"keycloak"
            }
          },
          "spec":{
            "containers":[
              {
                "name":"keycloak-server",
                "image":"registry.centos.org/mohammedzee1000/keycloak-postgres",
                "ports":[
                  {
                    "containerPort":8080,
                    "protocol":"TCP"
                  }
                ],
                "env":[
                  {
                    "name":"KEYCLOAK_USER",
                    "value":"admin"
                  },
                  {
                    "name":"KEYCLOAK_PASSWORD",
                    "value":"admin"
                  },
                  {
                    "name":"POSTGRES_DATABASE",
                    "value":"userdb"
                  },
                  {
                    "name":"POSTGRES_USER",
                    "value":"keycloak"
                  },
                  {
                    "name":"POSTGRES_PASSWORD",
                    "value":"password"
                  },
                  {
                    "name":"POSTGRES_PORT_5432_TCP_ADDR",
                    "value":"postgres"
                  },
                  {
                    "name":"POSTGRES_PORT_5432_TCP_PORT",
                    "value":"5432"
                  }
                ],
                "securityContext":{
                  "privileged":false
                }
              }
            ],
            "restartPolicy":"Always",
            "dnsPolicy":"ClusterFirst"
          }
        }
      }
    },
    {
      "kind":"Service",
      "apiVersion":"v1",
      "metadata":{
        "name":"keycloak",
        "labels":{
          "name":"keycloak"
        }
      },
      "spec":{
        "ports":[
          {
            "protocol":"TCP",
            "port":8080,
            "targetPort":8080,
            "nodePort":0
          }
        ],
        "selector":{
          "name":"keycloak"
        },
        "type":"ClusterIP",
        "sessionAffinity":"None"
      }
    },
    		{
			"kind": "Route",
			"apiVersion": "v1",
			"metadata": {
				"name": "keycloak"
			},
			"spec": {
				"host": "",
				"to": {
					"kind": "Service",
					"name": "keycloak"
				}
			}
		}
  ]
}
